{
  "page":2,
  "per_page":15
  ,"total":30,
  "total_pages":2,
  "data":[
   {
      "id":16,
      "email":"maria.williams@reqres.in",
      "first_name":"Maria",
      "last_name":"Williams",
      "city": "London",
      "profession": "Teacher",
      "avatar":[
        {
          "image1":"https://picsum.photos/id/1004/500/500",
          "image2":"https://picsum.photos/id/1005/500/500",
          "image3":"https://picsum.photos/id/1006/500/500"
          
        }
      ]
    },

    
    {
      "id":17,
      "email":"james.bond@reqres.in",
      "first_name":"James",
      "last_name":"Bond",
      "city": "Paris",
      "profession": "Chef",
      "avatar":[
        {
          "image1":"https://picsum.photos/id/1019/500/500",
          "image2":"https://picsum.photos/id/1020/500/500",
          "image3":"https://picsum.photos/id/1021/500/500"
          
        }
      ]
    },
    {
      "id":18,
      "email":"jennifer.wong@reqres.in",
      "first_name":"Jennifer",
      "last_name":"Wong",
      "city": "Toronto",
      "profession": "Scientist",
      "avatar":[
        {
          "image1":"https://picsum.photos/id/1010/500/500",
          "image2":"https://picsum.photos/id/1011/500/500",
          "image3":"https://picsum.photos/id/1012/500/500"
          
        }
      ]
    },

     {
      "id":19,
      "email":"nick.ramos@reqres.in",
      "first_name":"Nick",
      "last_name":"Ramos",
      "city": "Amsterdarm",
      "profession": "Architect",
      "avatar":[
       {
          "image1":"https://picsum.photos/id/1016/500/500",
          "image2":"https://picsum.photos/id/1017/500/500",
          "image3":"https://picsum.photos/id/1018/500/500"
          
        }
      ]
    },

    {
      "id":20,
      "email":"mia.grater@reqres.in",
      "first_name":"Mia",
      "last_name":"Grater",
      "city": "Las Vegas",
      "profession": "Actress",
      "avatar":[
        {
          "image1":"https://picsum.photos/id/1010/500/500",
          "image2":"https://picsum.photos/id/1011/500/500",
          "image3":"https://picsum.photos/id/1012/500/500"
          
        }
      ]
    },

    {
      "id":21,
      "email":"nick.ramos@reqres.in",
      "first_name":"Nick",
      "last_name":"Ramos",
      "city": "Amsterdarm",
      "profession": "Architect",
      "avatar":[
       {
          "image1":"https://picsum.photos/id/1016/500/500",
          "image2":"https://picsum.photos/id/1017/500/500",
          "image3":"https://picsum.photos/id/1018/500/500"
          
        }
      ]
    },

    {
      "id":22,
      "email":"mia.grater@reqres.in",
      "first_name":"Mia",
      "last_name":"Grater",
      "city": "Las Vegas",
      "profession": "Actress",
      "avatar":[
        {
          "image1":"https://picsum.photos/id/1010/500/500",
          "image2":"https://picsum.photos/id/1011/500/500",
          "image3":"https://picsum.photos/id/1012/500/500"
          
        }
      ]
    },

    {
      "id":23,
      "email":"james.bond@reqres.in",
      "first_name":"James",
      "last_name":"Bond",
      "city": "Paris",
      "profession": "Chef",
      "avatar":[
        {
          "image1":"https://picsum.photos/id/1019/500/500",
          "image2":"https://picsum.photos/id/1020/500/500",
          "image3":"https://picsum.photos/id/1021/500/500"
          
        }
      ]
    },

    {
      "id":24,
      "email":"shawn.bluth@reqres.in",
      "first_name":"Shawn",
      "last_name":"Bluth",
      "city": "Dallas",
      "profession": "Fire Fighter",
      "avatar":[
       {
          "image1":"https://picsum.photos/id/1013/500/500",
          "image2":"https://picsum.photos/id/1014/500/500",
          "image3":"https://picsum.photos/id/1015/500/500"
          
        }
      ]
    },

    {
      "id":25,
      "email":"john.ryder@reqres.in",
      "first_name":"John",
      "last_name":"Ryder",
      "city": "Berlin",
      "profession": "Dancer",
      "avatar":[
        {
          "image1":"https://picsum.photos/id/1007/500/500",
          "image2":"https://picsum.photos/id/1008/500/500",
          "image3":"https://picsum.photos/id/1009/500/500"
          
        }
      ]
    },

    {
      "id":26,
      "email":"maria.williams@reqres.in",
      "first_name":"Maria",
      "last_name":"Williams",
      "city": "London",
      "profession": "Teacher",
      "avatar":[
        {
          "image1":"https://picsum.photos/id/1004/500/500",
          "image2":"https://picsum.photos/id/1005/500/500",
          "image3":"https://picsum.photos/id/1006/500/500"
          
        }
      ]
    },

    {
      "id":27,
      "email":"jennifer.wong@reqres.in",
      "first_name":"Jennifer",
      "last_name":"Wong",
      "city": "Toronto",
      "profession": "Scientist",
      "avatar":[
        {
          "image1":"https://picsum.photos/id/1010/500/500",
          "image2":"https://picsum.photos/id/1011/500/500",
          "image3":"https://picsum.photos/id/1012/500/500"
          
        }
      ]
    },

    {
      "id":28,
      "email":"alex.morris@reqres.in",
      "first_name":"Alex",
      "last_name":"Morris",
      "city": "Paris",
      "profession": "Dentist",
      "avatar":[
       {
          "image1":"https://picsum.photos/id/1013/500/500",
          "image2":"https://picsum.photos/id/1014/500/500",
          "image3":"https://picsum.photos/id/1015/500/500"
          
        }
      ]
    },

    {
      "id":29,
      "email":"nick.ramos@reqres.in",
      "first_name":"Nick",
      "last_name":"Ramos",
      "city": "Amsterdarm",
      "profession": "Architect",
      "avatar":[
       {
          "image1":"https://picsum.photos/id/1016/500/500",
          "image2":"https://picsum.photos/id/1017/500/500",
          "image3":"https://picsum.photos/id/1018/500/500"
          
        }
      ]
    },

     {
      "id":15,
      "email":"shawn.bluth@reqres.in",
      "first_name":"Shawn",
      "last_name":"Bluth",
      "city": "Dallas",
      "profession": "Fire Fighter",
      "avatar":[
       {
          "image1":"https://picsum.photos/id/1013/500/500",
          "image2":"https://picsum.photos/id/1014/500/500",
          "image3":"https://picsum.photos/id/1015/500/500"
          
        }
      ]
    },

    
  ]
}